module gitlab.com/commondatafactory/mapnotes

go 1.17

require (
	github.com/Attumm/settingo v1.4.1
	github.com/go-gormigrate/gormigrate/v2 v2.0.0
	github.com/gofiber/fiber/v2 v2.32.0
	github.com/twpayne/go-geom v1.4.1
	gorm.io/datatypes v1.0.6
	gorm.io/driver/postgres v1.3.4
	gorm.io/gorm v1.23.4
)

require (
	github.com/andybalholm/brotli v1.0.4 // indirect
	github.com/go-sql-driver/mysql v1.6.0 // indirect
	github.com/jackc/chunkreader/v2 v2.0.1 // indirect
	github.com/jackc/pgconn v1.11.0 // indirect
	github.com/jackc/pgio v1.0.0 // indirect
	github.com/jackc/pgpassfile v1.0.0 // indirect
	github.com/jackc/pgproto3/v2 v2.2.0 // indirect
	github.com/jackc/pgservicefile v0.0.0-20200714003250-2b9c44734f2b // indirect
	github.com/jackc/pgtype v1.10.0 // indirect
	github.com/jackc/pgx/v4 v4.15.0 // indirect
	github.com/jinzhu/inflection v1.0.0 // indirect
	github.com/jinzhu/now v1.1.5 // indirect
	github.com/klauspost/compress v1.15.1 // indirect
	github.com/pkg/errors v0.9.1 // indirect
	github.com/valyala/bytebufferpool v1.0.0 // indirect
	github.com/valyala/fasthttp v1.35.0 // indirect
	github.com/valyala/tcplisten v1.0.0 // indirect
	golang.org/x/crypto v0.0.0-20220411220226-7b82a4e95df4 // indirect
	golang.org/x/sys v0.0.0-20220412211240-33da011f77ad // indirect
	golang.org/x/text v0.3.7 // indirect
	gorm.io/driver/mysql v1.3.3 // indirect
)
